tweet_text
"""Everything we see, and everything we can’t, all of it was created by Jesus."" http://buff.ly/1xoXhTF #SonsOfIssachar archive | Mike Parsons"
"""We need to be transformed, or we will not be able to bear the glory of God"" http://buff.ly/16pDAzD #SonsOfIssachar archive | Mike Parsons"
"""Some of our musicians are starting to pick up on a sound coming from heaven."" http://buff.ly/1DGvSA7 #SonsOfIssachar archive | Mike Parsona"
"""God’s voice is powerful, and He wants to release His voice so that we can hear it. "" http://buff.ly/1wGJZ3t #SonsOfIssachar | Mike Parsons"
"""Spiritual warfare, which has been hidden, will become more open and obvious"" http://buff.ly/16pE5dc #SonsOfIssachar archive | Mike Parsons"
"""This was the enemy’s strategy in those days, to pollute the seed"" http://buff.ly/1GLRUxs #SonsOfIssachar archive | Mike Parsons"
"""We are in a time when seals are being broken and books are being opened"" http://buff.ly/1AhM4C9 #SonsOfIssachar archive | Mike Parsons"
"""He wants us to be like Jesus, who saw what the Father was doing"" http://buff.ly/1DGu5eh #SonsOfIssachar archive | Mike Parsons"
"""There is a battle going on for your attention, for your worship, and for your choice"" http://buff.ly/1xiefDK #SonsOfIssachar | Mike Parsons"
"""We ought to know what the word of God says about us and act on it without question"" http://buff.ly/1zIo0LR #SonsOfIssachar | Mike Parsons"
"""God wants to reveal all that you need for your life and destiny."" http://buff.ly/1xoWMZU #SonsOfIssachar archive | Mike Parsons"
"""If we are to live with the fire we will be continually changed and purified."" http://buff.ly/1DxeF8r #SonsOfIssachar archive | Mike Parsons"
"""Ascend where I am, where you are seated, a door will open for you."" http://buff.ly/1DGsAgj #SonsOfIssachar archive | Mike Parsons"
"""Two-thirds of the Bible is prophecy, God speaking before it happened."" http://buff.ly/1swweyR #SonsOfIssachar archive | Mike Parsons"
"Doing Greater Things Than #Jesus | #SonsOfIssachar archive  http://buff.ly/16Rp83V | Mike Parsons"
"God is revealing His plans and purposes so that we can cooperate with Him. http://buff.ly/1H4m6WJ #SonsOfIssachar archive | Mike Parsons"
"""Judgment, coming to God's household, dividing what is of Him and what isn’t."" http://buff.ly/1viBSVp #SonsOfIssachar archive | Mike Parsons"
"""A final harvest is to come: the River of Life is to be poured out."" http://buff.ly/1viC2w1 #SonsOfIssachar archive | Mike Parsons"
"""Where more is given, more is required. We must step up to a new level of holiness"" http://buff.ly/1vA4lHn #SonsOfIssachar | Mike Parsons"
"""He is wooing us, calling us to come away with Him, know Him, surrender all to Him."" http://buff.ly/1H4nHvz #SonsOfIssachar | Mike Parsons"
"""My heart is Yours. I am willing to step out and do Your will"" 
http://buff.ly/1xo9nd8 #SonsOfIssachar | #PropheticTimetable | Mike Parsons"
"The Kingdom of God is a heavenly realm (around us) that is also mirrored within us. http://buff.ly/1Df2Giz New blog post | Mike Parsons"
"The Kingdom of God is a heavenly realm (around us) that is also mirrored within us. http://buff.ly/1vZ3aRb blog post | Mike Parsons"
"""Tares have been deliberately sown by the enemy to cause confusion and dismay"" http://buff.ly/1totDxa #SonsOfIssachar archive | Mike Parso…"
"God wants a bride for His Son, adorned with the character of Christ. http://buff.ly/1AwuSfF #SonsOfIssachar archive | Mike Parsons"
"If we are wise, we will ourselves remove the things God wants removed. http://buff.ly/1xEz1vy #SonsOfIssachar archive | Mike Parsons"
"We can surrender right now and allow God to do anything He chooses in our lives http://buff.ly/1IpTBBy #SonsOfIssachar archive Mike Parsons"
"""Jesus, our High Priest, prepares and arranges the sacrifice on the altar"" http://buff.ly/1FmuSBO #SonsOfIssachar archive | Mike Parsons"
"""Are we willing, or do we still want to do it our own way?"" http://buff.ly/1tOr0EZ  #SonsOfIssachar archive | Mike Parsons"
"""It is time to give it all to God, to abandon ourselves fully to Him."" http://buff.ly/1AEMCEy #SonsOfIssachar archive | Mike Parsons"
