tweet_text
"How To Decode Your Cat's Body Language [#Infographic] | @lifehackorg | @_harpsicle http://goo.gl/eVSCCH"
"21 useful #apps we love right now | @bi_india http://goo.gl/r9N5MJ"
"So who are your 15? - Why we’re better off with fewer friends | @qz http://goo.gl/AbR0ul"
"5 UNESCO World Heritage Sites worth a visit | @FromGrapevine http://goo.gl/qAOBdU #travel"
"The Internet of Things that constantly break | @TheNextWeb  | @ow http://goo.gl/oph7sB #iot #InternetofThings"
"Why Norway's Doctors Still Use Floppy Disks | gundersen.net 
https://goo.gl/572PEf"
"My family went screen-free for a week to re-learn how to talk to each other - @qz
http://goo.gl/eImutg"
"Why women in the workplace are screwed, in seven charts | @qz http://goo.gl/Y7tZrU #business"
"The cheaper your running shoes, the more satisfied you’ll be with your run | @qz http://goo.gl/3MGXPR"
"In Case You Still Don't Do It Right! How To Chop Garlic Like A Master Chef | @Digg http://goo.gl/txwmMb"
"The Crazy Climb to Mount Kinabalu | @OZY | @lnguyenokwu http://goo.gl/YaGIIw #travel #adventure"
"Single and Looking? Turn Off #SocialMedia | @OZY http://goo.gl/CppaEH"
"The Newspaper Error That Sparked the Nobel Prize | @OZY | @seanbraswell http://goo.gl/SYGmXq"
"How Playboy Decided To Stop Publishing Naked Photos http://goo.gl/6Tmdou"
"Take The Apple Logo Test: Explains Why Everyday Memory Is So Poor | @PsyBlog http://goo.gl/fldS2H"
"18 Ways Your Phone Is Ruining Your #Health | @Ejnarins http://goo.gl/lkKr1G"
"Have some damn kids already! Denmark Desperately Wants Its Youth To Start Boning | @Digg http://goo.gl/cG9cjp"
"20 years later,  Lycos searches for rebirth | @BetaBoston  | @watha http://goo.gl/5kPFHk #iot #InternetofThings"
"All the things the toilet of the future will do for you | @qz
http://goo.gl/1m17Vl"
