tweet_text
"How can you boost #literacy in your school? – | Teacher Network | The Guardian http://ow.ly/X2Vli"
"Ten ways to improve student literacy | Teacher Network | The Guardian http://ow.ly/X2W2R #Literacy #Reading"
"Boys trail girls in literacy & numeracy when starting school - The Guardian http://ow.ly/X2VuK #Literacy"
