tweet_text
"#BlackFriday Extended Offer The #HTCOneM9 on o2 NOW Just £28.50 p/m #mobile #tech #android http://tidd.ly/8ab2b8b9",18000,"2016-01-16 13:15:00"
"Beats Solo 2 Headphones @ Just £125 #StillDre #Soundcloud #Android #iOS9 #tech http://tidd.ly/58b4cb82",18000,"2016-01-15 05:45:00"
"""And So it was revealed, The Tempered Glass Protection Did It's Job Indeed!"" #Mobile #Tech http://tidd.ly/2a4fd1c6",18000,"2016-02-02 20:15:00"
"14 Days 7 Hours (Ultra STAMINA Mode) On The Sony Xperia M4 Aqua #Tech #Love #Android http://bit.ly/EZAqua",18000,"2016-01-15 08:45:00"
"@EzMobiles iPhone 6 16GB £44 p/m 2GB 4G Data! Unlimited Mins/Texts #Mobile http://tidd.ly/77464f2d ",18000,"2015-11-12 16:00:00"
"The Big Event! #LimitedOffers On #Mobile & Sim Only Plans from #iDMobile #Love #Tech http://tidd.ly/35ee4809",18000,"2015-12-29 10:45:00"
"Protect Your iPhone 6 With Protect Your Bubble Insurance! Only £6.99 p/m  http://tidd.ly/b330cfa4 #iPhone #iOS #Tech",18000,"2015-07-07 21:35:00"
"@EzMobiles #IOHO The Best Apple App Store & Google Play Games! #iPadgames #Androidgames http://bit.ly/1I9WEyO",18000,"2016-02-02 19:15:00"
"@EzMobiles The Ultimate iPhone 6 Plus Testing Grounds! Samurai Swords, Liquid Nitrogen, Rolling Cars & Hammers! http://bit.ly/EZI6Test",18000,"2015-07-07 16:25:00"
"The Samsung Galaxy S6 edge- Unlimited Mins Unlimited Text 1GB 4G Data £42.50 p/m #Mobile http://tidd.ly/6a1da4b1",18000,"2016-01-13 16:15:00"
"The Best Most Stylistic Protective & Unique Cases For Your Laptop Tablet And Phone! BOOM! Safe & Sound! #Mobile http://www.ez-mobiles.co.uk/product-category/cases/",25200,"2015-11-11 13:00:00"
"For When You Loose Control Of Your Limb's & Slip Impactology Protects & Snugly Fits! http://tidd.ly/89c06102 #Mobile ",18000,"2015-10-21 16:50:00"
"The #SonyXperiaZ3 Plus With Unlimited Mins/Text + 1GB Data! Just £42 p/m #mobile #Tech http://tidd.ly/edd6d37",18000,"2016-01-16 12:15:00"
"The #Moto360 2nd Gen #NewDigitalClass £229 #Mobile #Tech #bbcqt http://tidd.ly/f0379697",18000,"2016-01-28 08:30:00"
"Immerse Virtual Reality Headset It's Here Order now or just get Google Cardboard! #love #VR http://tidd.ly/bcbcba84",18000,"2015-11-14 16:00:00"
"SportsCam DV520S 1080P Full HD 12.0 MP Wifi Cam With 1.5 Inch TFT Screen #POV #Photography http://tidd.ly/f68f775c",18000,"2015-10-21 15:17:00"
"EE 2nd Line #SimOnly Save 10% @ £15.49 – 2000 Mins Unlimited/Texts + 2GB 4G Data #Mobiles http://tidd.ly/3abb4e8f",18000,"2016-01-15 09:45:00"
"#ID #SHOCKPROOF #SIMONLY 2000 minutes 5000 Texts & 10GB Data just £20 p/m #Love #Tech #iOS http://tidd.ly/d198b096",21600,"2016-02-03 16:45:00"
"Equate Your Calls internationally speaking into Pennies with Lycamobile #Love #Tech #Mobile http://tidd.ly/7cde04ff ",25200,"2015-08-14 23:45:00"
"Get 20% off GadgetCoverUK insurance use the code 204LIFE insure the #AppleWatch for just £1! http://tidd.ly/53010bfe",18000,"2016-01-16 14:15:00"
"Order The #iPhone6s £49.00 + £29 Upfront With Vodafone & 6GB 4G Data! #Love #Tech #iOS9 http://tidd.ly/9c365539",18000,"2016-01-15 06:00:00"
"#GalaxyS6EdgePlus £29.99 upfront £59.99 p/m 20GB Data Unlimited Mins/Texts http://tidd.ly/aafdb72c",18000,"2016-01-13 15:45:00"
"@EzMobiles Recap our first impressions of the LG G4 http://www.ez-mobiles.co.uk/first-impressions-of-the-lg-g4-ez-mobiles/ #Love #Mobile #Tech ",18000,"2015-11-28 14:30:00"
"#iPhone6s with o2 on a 30GB Plan with A FREE Upgrade in 12 Months+ 2 Years Cover! £64 p/m http://tidd.ly/65eecb4c",21600,"2016-02-02 18:00:00"
"@LycamobileUK International Money Transfer Service Lycaremit bit.ly/1RBtHkb",18000,"2016-01-15 10:00:00"
"#iPhone6s £54 + £29 Upfront Unlimited Mins/Texts 8GB of 4G Data with 12 months #Netflix #ios http://tidd.ly/e2ba4395",18000,"2016-02-03 17:00:00"
"Vodafone #WinterOffer 2GB For £15:30 p/m Save 25% On Selected #SimOnly Plans #Love #Tech http://tidd.ly/bc87d631",18000,"2016-02-03 15:00:00"
"The #SonyXperiaM4Aqua PAYG With Vodafone Save £51 (was £150) Now £99  #Tech #Mobile #Android http://tidd.ly/1f87ed22",18000,"2016-01-15 08:30:00"
"#BackToTheFuture Hip As Yesterday The HipStreet W7 £49.99 With 1 year #office365  Preloaded http://tidd.ly/cd2c378",18000,"2016-01-16 22:45:00"
"@EzMobiles We Tear to Ribbons Apple's Keynote #IOHO #AppleWatch #iPadPro #iOS9 #iPhone6s http://bit.ly/1FErAWi",18000,"2015-10-22 23:45:00"
"@EzMobiles Which #Mobile Contract Comes With A FREE iPad Air 2? #iOS9 #Android #Love #Tech bit.ly/1WZKrZ9",18000,"2016-01-15 07:30:00"
"Free Tracked Shipping code T21-Ship-FREE for all UK orders #SafePremiumProtection #Tech http://tidd.ly/a740bc9 ",18000,"2016-01-08 13:45:00"
"The Visually #4K Captivating #SonyXperia Z5Premium 3GB Data £9.99 upfront £46 Monthly! #Tech http://tidd.ly/56d1cafa",18000,"2016-02-03 11:15:00"
"The Sony Xperia Z5 Premium Review @EzMobiles 4K Display is the new visual plateau founded? http://www.ez-mobiles.co.uk/the-sony-xperia-z5-premium-review-ezmobiles/  ",18000,"2016-01-15 09:00:00"
"Grab The Sony Playstation #PS4 + The Samsung Galaxy Core Prime @ £27.50 Today! #tech #mobile http://tidd.ly/708f7d96",21600,"2016-01-15 10:30:00"
"@EzMobiles Visited Dismaland with the #SonyXperiaM4Aqua #Example #Photography #Xfactor http://bit.ly/M4Camera",18000,"2015-11-07 21:00:00"
"EE's World's First 4G #POV #ActionCam & #LiveStream Over 3G/4G #Photography #Mobile #Tech http://tidd.ly/42bbc2af",18000,"2016-02-02 17:45:00"
"#StarWarsTheForceAwakens #IsThisTheDroidYourLookingFor? The Sphero BB-8 Droid Operated Via #Android & #iOS9 http://tidd.ly/ddd68cda",18000,"2016-01-16 05:00:00"
"#LimitedStock Grab the #Note4 @ just £31 p/m #Love #Mobile #Tech #Android #BlackFriday http://tidd.ly/c0832a3d ",18000,"2015-12-03 20:30:00"
"Save £120 on Samsung Galaxy S6 deals with o2 Mobile's January Sale & Much More! #Love #Tech http://tidd.ly/439c5b4f",18000,"2016-01-15 07:00:00"
"20% Off All Gadget Policies @GadgetCoverUK Voucher Code GDGT20 http://tidd.ly/f799b225 #Love #Tech #Mobile",18000,"2016-01-15 07:00:00"
"@EE @EzMobiles Sim Only Plans & Rewards http://www.ez-mobiles.co.uk/ee-sim-only-everything-packages-rewards/#more-69085 #Love #Tech #iOS #Mobile http://tidd.ly/27201776",18000,"2016-02-04 09:15:00"
"Which Network Has The Best Incentives To Join? #Mobile #Love #Tech #TheApprentice  http://bit.ly/1KjZXTa",18000,"2016-01-15 13:45:00"
"Which #Mobile Contracts Will Net A FREE #PS4? #TheApprentice http://bit.ly/1RJeCx7",18000,"2016-01-15 12:30:00"
"Save £134 On The #SamsungGalaxyS6 edge with Vodafone's #JanuaryWinterSale #Love #Tech http://tidd.ly/c01c769a",18000,"2016-01-15 06:30:00"
"@EzMobiles Save £144 On The #iPadAir2 With The Vodafone Wintersale @ just £32 p/m #Tech #iOS http://tidd.ly/7357164a",18000,"2016-02-03 03:00:00"
"@EzMobiles iPhone6 #PriceReduction @O2 With TouchID & 4G NFC Contactless Payment http://tidd.ly/714ce86b #Love #Tech",18000,"2016-02-03 16:15:00"
"Get 1GB Extra on the £17 SIM Only Tariff, Accumulating to 3GB 4G Data! http://tidd.ly/b5a1f464 #Love #Tech #Mobile ",21600,"2016-02-02 16:30:00"
