tweet_text
"Reason #3 Why We're Not Having Kids: We're saving for early retirement, not a college fund. #WhatDINKSThink
",75600,"2016-01-06 17:15:00"
"The #Endometriosis Effect: How To Align Your Emotions, Energy, Eating, & Intimacy For Healing http://bit.ly/1QoIn8r - via @AudreySArnold",151200,"2016-01-22 19:15:00"
"Reason #4 Why We're Not Having Kids: We like having sex. Without the consequences. #WhatDINKSThink
",75600,"2016-01-06 14:45:00"
"Reason #9 Why We're Not Having Kids: We prefer limitless travel over lack of sleep. #WhatDINKSThink",75600,"2016-01-05 17:15:00"
"If most of your relationship is happening over text, you're dating an iPhone. #LoveBombshell",129600,"2016-01-23 15:30:00"
"Reason #2 Why We're Not Having Kids: We prefer disposable income over disposable diapers. #WhatDINKSThink",32400,"2016-01-06 07:00:00"
"Cyberstalking your ex? Perform an online exorcism. Unfriend. Unfollow. Delete. Repeat! #itsabreakupnotabreakdown https://www.instagram.com/p/BBVASmVlVx7/",32400,"2016-02-10 07:15:00"
"Reason #7 Why We're Not Having Kids: We prefer Saturday nights on the town to Saturday play dates. #WhatDINKSThink
",86400,"2016-01-06 07:30:00"
"You won't find love in a pint of @benandjerrys ice cream. Spoonful does not equal spooning. #LoveBombshell",432000,"2016-01-23 11:30:00"
"Reason #1 Why We're Not Having Kids: My body is an adult playground not a child's nursery #WhatDINKSThink",54000,"2016-01-06 14:00:00"
"Struggling to knock your ex off the Perfection pedestal? It's time to let go and move on https://www.instagram.com/p/BBlMYDalV3v/ #itsabreakupnotabreakdown",28800,"2016-02-10 11:45:00"
"If you're sexting him naughty pics, his friends have seen you naked. #LoveBombshell",108000,"2016-01-23 14:45:00"
"It's time to STOP telling yourself why you're not enough and START rediscovering your Fabulous Factor #dreamplusdo",21600,"2015-12-14 15:45:00"
"There will never be a more perfect moment to START living as who you really are than right now. #DreamPlusDo",32400,"2015-12-15 07:15:00"
"Yes. There ARE good men left. Stop looking bad boys. START seeing & celebrating the good guys. #LoveBombshell",129600,"2016-01-23 08:45:00"
"No one's ever done anything truly GREAT from well within the walls of their comfort zone. #DreamPlusDo",21600,"2015-12-15 13:00:00"
"MUST read for #womeninbiz Make Money w/ Facebook Groups: Build Relationships, Get Customers http://amzn.to/20neMgA – via @AbbieUnger",86400,"2016-02-10 15:45:00"
"Reason #6 Why We're Not Having Kids: We prefer sleeping in + sex to never getting a day off #WhatDINKSThink
",86400,"2016-01-06 09:45:00"
"Don't mistake a nice guy for a boring guy. Get your mind right before meeting Mr. Right. #LoveBombshell",259200,"2016-01-22 07:15:00"
"The best way to get over your ex? Stop getting under your ex. #LoveBombshell",108000,"2016-01-22 09:15:00"
"When you STOP forcing and START marrying your heart + your hustle, THAT'S when you #DreamPlusDo",25200,"2015-12-14 18:15:00"
"The best way to get OVER your ex? Stop getting UNDER your ex. #LoveBombshell",64800,"2016-01-23 08:30:00"
"Wearing makeup to the gym is NOT a dating strategy. Don't be the girl whose mascara runs faster than she does. ",64800,"2016-01-23 10:45:00"
"If you're secretly checking his phone, either you don't trust him (and he's not Mr. Right) or YOU'RE Ms. Wrong. ",75600,"2016-01-24 08:30:00"
"Reason #8 Why We're Not Having Kids: We prefer a clean house to a doll house. #WhatDINKSThink",86400,"2016-01-05 18:45:00"
"When it comes to your Inner Circle (a.k.a your besties) do they resemble a Boohoo Crew or Woohoo Crew? #DreamPlusDo",28800,"2015-12-02 15:45:00"
"Do you go to bed every night thinking about your ex? Time to give you + your bedroom a breakover! https://www.instagram.com/p/BBaS1mfFV5G/ #video #instagram ",32400,"2016-02-10 19:00:00"
"Be honest. Do you know what your daily beauty regimen’s doing inside your body? http://bit.ly/thepriceofbeauty  – via @AudreySArnold ",86400,"2016-02-11 09:15:00"
"Unlock the secrets to client attraction with #Facebook #groups Here’s how http://amzn.to/20neMgA – via @AbbieUnger",64800,"2016-02-10 07:30:00"
" Give yourself permission to show up as All. Of. You. in life, love, and business. #DreamPlusDo",86400,"2016-01-06 12:15:00"
"Register for @AudreySArnold's FREE #endometriosis educational call here: http://bit.ly/1QoIn8r",108000,"2016-01-22 17:15:00"
"Unlock the path to becoming #painfree from #endometriosis with @AudreySArnold here http://bit.ly/endometriosis-call",64800,"2016-01-07 11:45:00"
"U can stay small, worried what others think. Or you can stand tall, trusting you have what it takes to #dreamplusdo",18000,"2015-12-15 05:15:00"
"If your new guy treats you well but treats waiters, valets, and strangers like shit? He's a dick. #LoveBombshell",108000,"2016-01-23 10:00:00"
"When fear creeps in + all you think is 'I'm worried that..."" instead say 'Wouldn't it be amazing if..' #DreamPlusDo",28800,"2015-12-15 11:00:00"
"Don't wait for #DreamPlusDo time to magically appear in your life. Schedule that s***!",25200,"2015-12-14 19:15:00"
"Struggling with #endometriosis? Learn how your #emotions affect pain w/ endometriosis coach @AudreySArnoldhttp://bit.ly/endometriosis-call ",43200,"2016-01-08 06:15:00"
"Before you fall in love with someone new, make sure you're not the only one falling. #LoveLesson",129600,"2016-01-21 19:45:00"
"Don't know if he's seeing other people? He's NOT your boyfriend. #LoveBombshell",108000,"2016-01-23 06:15:00"
"Reason #5 Why We're Not Having Kids: We like sleeping in on weekends. #WhatDINKSThink
",86400,"2016-01-06 11:30:00"
"Dear Body: I love you. No matter my shape, my size, the wrinkles 'round my eyes. I love you. xoxo",108000,"2016-01-21 20:00:00"
"Struggling/suffering through the daily pain of #endometriosis? Join @AudreySArnold for an intimate conversation >> http://bit.ly/1QoIn8r",129600,"2016-01-22 07:30:00"
"Sleeping with him on the 1st date to keep his interest is the dating equivalent of eating pizza on a low carb diet.",108000,"2016-01-22 13:00:00"
"Reason #10 Why We're Not Having Kids: We prefer wine over whine. #WhatDINKSThink",86400,"2016-01-06 16:15:00"
"Never mistake Mr. Nice Guy for Mr. Boring. Get your mind right before you meet Mr. Right. #LoveBombshell",129600,"2016-01-22 11:45:00"
"Never apologize to a man for your size, thighs, or wrinkles around your eyes. Mr. Right loves YOU. #LoveBombshell",108000,"2016-01-22 12:15:00"
"Going through a #breakup while your friends are married w/ kids? STOP the compare and despair. Here's how https://www.instagram.com/p/BBX6uY4FV__/",36000,"2016-02-10 10:30:00"
"The best kept secret for Valentine’s Day! http://bit.ly/1NAatbJ",28800,"2016-02-02 08:45:00"
"The gift that keeps on giving.  Order now for Valentine’s Day! #VDAY http://bit.ly/1NAatbJ",25200,"2016-02-02 10:00:00"
"Daily #video advice to turn your #breakup from a breakdown to a breakthrough on @instagram https://www.instagram.com/lisasteadman/",36000,"2016-02-10 08:45:00"
