tweet_text
"Normality is a Paved Road: It's Comfortable to Walk, but No Flowers Grow On It 
Vincent Van Gogh",25200,"2016-02-15 01:17:00"
"Once we accept our limits, we go beyond them
Albert Einstein
Vero Beach, Florida",21600,"2016-02-15 06:30:00"
"My 5 ⭐️ Review of The Angel in my Well by @KevinAnsbro http://juliagrantham.com/2015/11/11/my-review-of-the-angel-in-my-well-by-kevin-ansbro/?fb_ref=a62b045037504aa685f6457176b81989-",75600,"2016-02-15 10:39:00"
"My Confessions of a Writer #Blog. Thank you for the tag @kevinansbro http://juliagrantham.com/2015/11/20/confessions-of-a-writer-tag/?fb_ref=96011d15b9924210882088b167e2dff0-",21600,"2016-02-15 12:37:00"
"""Knowledge Speaks, But Wisdom Listens""
Jimi Hendrix",21600,"2016-02-15 11:02:00"
"""To Live A Creative Life, We Must Lose Our Fear Of Being Wrong.""
Joseph Chilton Pearce",21600,"2016-02-15 08:12:00"
"The Best Way Out is Always Through
Robert Frost",21600,"2016-01-11 11:01:00"
"""Nothing Haunts Us Like The Things We Don't Say
Mitch Albom",21600,"2016-02-15 09:12:00"
"Venice, October 2015 ",28800,"2016-02-15 02:12:00"
"In the long run, the sharpest weapon of all is a kind and gentle spirit.
Anne Frank",25200,"2016-02-16 07:45:00"
"Some May Never Live, But The Crazy Never Die
Hunter S. Thompson born in Louisville, KY my hometown",25200,"2016-02-15 09:41:00"
"Silence is a great source of strength
Lao Tzu",21600,"2016-02-15 08:15:00"
"Every time you #smile at someone, it is an action of #love, a gift to that person, a beautiful thing.
Mother Teresa",21600,"2016-02-16 06:15:00"
"My 5 ⭐️ Review of Destination: Freedom by Lily Amis @nassimadesign Powerful book! https://t.co/vnPmqcdPnM",25200,"2016-01-10 10:37:00"
"My 5⭐️ Review of Kinnara by Kevin Ansbro. Loved this book! @kevinansbro  http://juliagrantham.com/2015/08/19/my-review-of-kinnara-by-kevin-ansbro-2/?fb_ref=0a9d60ea13b5475d9eddb7d31d31fbcf",25200,"2016-02-15 10:16:00"
"It's No Wonder That Truth Is Stranger Than Fiction. Fiction Has To Make Sense.
Mark Twain",21600,"2015-12-27 08:31:00"
"Remember That Everyone You Meet is Afraid of Something, Loves Something and Has Lost Something
Jackson Brown Jr.",18000,"2016-01-11 12:23:00"
"I gave 5 ⭐️ to @traciebanister's delightful book, Twin Piques My Review: http://juliagrantham.com/2015/05/05/6/?fb_ref=623e546897854e5089f391e7767d963c-",75600,"2016-02-15 10:17:00"
"Welcome #Followers!
Juliagrantham.com
Facebook.com/juliaellengrantham
instagram.com/juliagrantham2",18000,"2015-12-25 07:39:00"
"""Experience Is The Name We Give To Our Mistakes.""
Oscar Wilde",25200,"2016-02-15 08:45:00"
"My Little Dog - A Heartbeat At My Feet.
#quote by Edith Wharton
#Art by Julia Grantham",21600,"2016-02-15 11:03:00"
"Whoever is happy will make others happy.
Anne Frank, The Diary of a Young Girl",21600,"2016-02-15 08:45:00"
"One Reason A Dog Can Be Such A Comfort When You're Feeling Blue Is That He Doesn't Try To Find Out Why.
Unknown
",25200,"2016-02-15 07:41:00"
"My 5 ⭐️ Review of Across The Pond by Michael McCormick @mikemccormick49 http://juliagrantham.com/2015/05/30/my-review-of-across-the-pond-by-michael-mccormick/?fb_ref=b828c8bb55e4458ba898a8d2f47",25200,"2016-01-11 06:17:00"
"#Art enables us to find ourselves and lose ourselves at the same time.
Thomas Merton
Apollo and Daphne, Bernini",21600,"2016-02-16 08:30:00"
"""Appreciate The Moment Of A First Kiss; It May Be The Last Time You Own Your Heart.""
Robert M. Drake ",21600,"2016-02-15 08:15:00"
"	I loved Long Shadows by @juliehaiselden My 5 ⭐️ Review http://juliagrantham.com/2015/08/25/my-review-of-long-shadows-by-julie-haiselden/?fb_ref=1b661f965c75446cbec089e7e2fc751a-",64800,"2016-02-15 14:23:00"
"Optimism and Hope: My Author Themes http://juliagrantham.com/2015/05/31/optimism-and-hope-my-author-themes/?fb_ref=f6280e5168174e1aa1f7ad2252f8d425-",18000,"2015-12-25 11:39:00"
"I gave 5 ⭐️ to two delightful children's books by Lily Amis @nassimadesign My Review: http://juliagrantham.com/2015/11/25/two-delightful-childrens-books-by-lily-amis/?fb_ref=f44b310f428f424e965d53dffe4bbb8c-",28800,"2016-02-15 03:03:00"
"	I gave 5⭐️ to @lindaabbott55's wonderful book, Ten Days in Paradise My Review: http://juliagrantham.com/2015/09/10/my-review-of-ten-days-in-paradise-by-linda-abbott/?fb_ref=62b0fea43bf942018b4e7e4bc3e78cec-",43200,"2016-02-15 11:03:00"
"Forever Is Composed of Nows.
#quote by Emily Dickenson
#Art by Julia Grantham",21600,"2016-01-07 07:37:00"
"My 5 ⭐️ Review of Buck Trent by Frank Atwood Great Western! @mas1az_paul
http://juliagrantham.com/2015/07/16/my-review-of-buck-trent-by-frank-atwood/?fb_ref=4795887d8f194af381a99c6b75caea66-",54000,"2016-02-15 07:03:00"
"My 5 ⭐️ Review of Lies You Wanted to Hear by James Whitfield Thomson http://juliagrantham.com/2015/05/13/my-review-of-lies-you-wanted-to-hear-by-james-whitfield-thomson/?",43200,"2016-02-15 04:53:00"
"Resist Much, Obey Little
#quote by Walt Whitman
#Art by Julia Grantham",28800,"2016-02-15 11:32:00"
"Do Not Go Where The Path May Lead, Go Instead Where There Is No Path And Leave A Trail

Ralph Waldo Emerson",21600,"2016-02-15 06:27:00"
"A dog is the only thing on earth that loves you more than he loves himself.
Josh Billings",18000,"2016-02-15 09:00:00"
"My 5⭐️ Review of The Branches of Time by Author Luca Rossi @authorlrossi   http://juliagrantham.com/2015/11/05/my-review-of-the-branches-of-time-by-luca-rossi/?fb_ref=2d135a33d4034b369a0abd5c673b00c0-Twitter ",32400,"2016-02-15 07:13:00"
"My 5 ⭐️ Review of Prada and Prejudice by @KatieOliver01   http://juliagrantham.com/2015/06/11/my-review-of-prada-and-prejudice-by-katie-oliver/?fb_ref=f890d6a220f1442b8f6b71b7ec61d2e8-",129600,"2016-02-15 13:33:00"
"Art Is Not What You See, But What You Make Others See.
#quote by Edgar Degas 
#Art by Julia Grantham",21600,"2016-02-15 08:29:00"
"Winter morning on Martha's Vineyard ",21600,"2016-01-11 03:38:00"
"Beautiful Edgartown #MarthasVineyard December 2015",25200,"2016-02-15 02:47:00"
"All That We See or Seem Is But A Dream Within A Dream

Edgar Allen Poe",21600,"2016-01-11 14:33:00"
"Life Becomes Easier When You Learn to Accept an Apology You Never Got
Robert Brault",18000,"2015-12-27 10:31:00"
"My 5⭐️ Review of M LeMont's book @mistersalesman  http://www.amazon.com/review/R3N3LIQHZ71U3Y/ref=cm_cr_rdp_perm?ie=UTF8&ASIN=B00VKD5QNM",32400,"2016-02-15 10:22:00"
"No Great Mind Has Ever Existed Without A Touch of Madness
Aristotle",21600,"2016-01-06 06:27:00"
"I Like A Bit Of Mongrel Myself, Whether It's A Man Or A Dog; They're The Best For Everyday
George Bernard Shaw",21600,"2016-02-15 06:03:00"
"How People Treat You Is Their Karma; How You React Is Yours
#Quote by Wayne Dyer",21600,"2016-01-15 07:17:00"
"I loved watching this dog play in the waves, fetching his ball over and over. #cutedogs
Oahu, #Hawaii",21600,"2016-02-16 06:45:00"
"If you tell the truth, you don't have to remember anything
Mark Twain",21600,"2016-02-16 07:15:00"
"Be faithful in small things because it is in them that your strength lies
Mother Teresa ",21600,"2016-02-16 07:15:00"
