tweet_text
"There are more #birthstones for you #August babies than just #Peridot! http://ow.ly/AXtN8 ",31536000,"2015-08-31 07:45:00"
"Great blog! #September #Birthstones! http://ow.ly/AXq9e #gemstone #birthday",31536000,"2015-09-01 08:45:00"
"Great blog about #June #Birthstones! http://ow.ly/AXtED So much more than Pearls!",31536000,"2015-06-01 07:45:00"
"#December Birthstones blog from #DHD http://goo.gl/xNjljP #birthday #birthstone #gemstones",31536000,"2015-12-09 16:45:00"
"GREAT #birthstone blog for you #August babies! http://ow.ly/AXtN8 #gemstone #birthday",31536000,"2015-08-25 20:45:00"
"Great blog about #June #Birthstones! http://ow.ly/AXtED So much more than Pearls!",31536000,"2015-06-17 16:45:00"
"Great blog about #June #Birthstones! http://ow.ly/AXtED Turquoise +ruby +agate? Oh MY!",31536000,"2015-06-09 14:45:00"
"#September #Birthstones-not just #Sapphire baby! http://ow.ly/AXq9e #gemstone #birthday",31536000,"2015-09-25 19:45:00"
"GREAT blog about #September #Birthstones! http://ow.ly/AXq9e #gemstones",31536000,"2015-09-17 15:45:00"
"Check out this blog about #April #Birthstones! http://ow.ly/AXsDJ",31536000,"2015-04-30 13:30:00"
"Check out a blog about #April #Birthstones! http://ow.ly/AXsDJ Please be sure to leave a comment! Thanks!",31536000,"2016-04-01 09:45:00"
"Check out this blog about #April #Birthstones! http://ow.ly/AXsDJ #birthday #monthly #gemstones",31536000,"2016-04-09 11:30:00"
"Check out this blog about #April #Birthstones! http://ow.ly/AXsDJ #gemstones #birthday",31536000,"2016-04-14 13:45:00"
"Check out my blog about #April #Birthstones! http://ow.ly/AXsDJ #gemstones #birthday",31536000,"2016-04-20 14:45:00"
"Check out my blog about #April #Birthstones! http://ow.ly/AXsDJ #gemstones #birthday",31536000,"2016-04-25 17:45:00"
"GREAT blog about #May #Birthstones! http://ow.ly/AXsOq It ain't all emeralds baby!",31536000,"2015-05-01 08:30:00"
"GREAT blog about #May #Birthstones! http://ow.ly/AXsOq It ain't all emeralds baby!",31536000,"2015-05-07 10:30:00"
"GREAT blog about May #Birthstones! http://ow.ly/AXsOq It isn't just emeralds! #birthday #birthstone",31536000,"2015-05-13 13:45:00"
"GREAT blog about #May #Birthstones! http://ow.ly/AXsOq Emerald + agates + pearls? Oh MY!",31536000,"2015-05-19 16:45:00"
"Great blog about #June #Birthstones! http://ow.ly/AXtED It ain't just plain ole pearls!",31536000,"2015-06-25 20:30:00"
"Check out my blog about #July #Birthstones! http://ow.ly/AXtib Ruby? Oh yes! AND much more!",31536000,"2015-07-01 10:45:00"
"Awesome blog about #July #Birthstones! http://ow.ly/AXtib Ruby, turquoise + more!",31536000,"2015-07-09 11:45:00"
"Check out my blog about #July #Birthstones! http://ow.ly/AXtib peridot? Oh yeah, + more!",31536000,"2015-07-17 17:45:00"
"Fun blog about #July #Birthstones! http://ow.ly/AXtib #gemstones #birthday ",31536000,"2015-07-25 20:45:00"
"Amazing blog about #July #Birthstones! http://ow.ly/AXtib #gemstones MORE than Rubies!",31536000,"2015-07-31 08:45:00"
"#Peridot is NOT the only stone for you August babies! http://ow.ly/AXtN8 #August #Birthstones",31536000,"2015-08-01 09:45:00"
"Not a fan of Peridot? See + learn about other #August #birthstones: http://ow.ly/AXtN8",31536000,"2015-08-07 11:45:00"
"#Peridot is NOT the only #birthstone for you #August babies! http://ow.ly/AXtN8 ",31536000,"2015-08-13 14:45:00"
"#Peridot? Oh no! There are more #birthstone for you #August babies! http://ow.ly/AXtN8 ",31536000,"2015-08-19 17:45:00"
"#September #birthstones are not just #sapphires! http://ow.ly/AXq9e #Sept. #gemstones",31536000,"2015-09-09 11:45:00"
"#September #Birthstones-not just #Sapphire baby! http://ow.ly/AXq9e #gemstone #birthday",31536000,"2015-09-30 22:45:00"
"Chkout the #November Birthstones on #DHD http://goo.gl/BSfu2r #gemstone #birthstone #birthstones",31536000,"2015-11-16 13:30:00"
"Chkout the #November Birthstones on #DHD http://goo.gl/BSfu2r #gemstone #birthstone #birthstones",31536000,"2015-11-29 19:45:00"
"#December Birthstones blog from #DHD http://goo.gl/xNjljP #birthday #birthstone #gemstones",31536000,"2015-12-31 22:45:00"
"Chkout the #November Birthstones on #DHD http://goo.gl/BSfu2r #gemstone #birthstone #birthstones",31536000,"2015-10-21 12:45:00"
"#November Birthstone info on #DHD http://goo.gl/BSfu2r #gemstone #birthstone #birthstones",31536000,"2015-11-10 09:00:00"
"#December Birthstones blog from #DHD http://goo.gl/xNjljP #birthday #birthstone #gemstones",31536000,"2015-12-26 10:30:00"
"Chkout the #November Birthstones on #DHD http://goo.gl/BSfu2r #gemstone #birthstone #birthstones",31536000,"2015-11-03 17:30:00"
"#December Birthstones blog from #DHD http://goo.gl/xNjljP #birthday #birthstone #gemstones",31536000,"2015-12-01 07:45:00"
"#December Birthstones blog from #DHD http://goo.gl/xNjljP #birthday #birthstone #gemstones",31536000,"2015-12-20 19:45:00"
"Not just opals! #October Birthstones from #DHD http://goo.gl/BmDq5w #birthstone #birthstones #gemstones",31536000,"2015-10-01 06:45:00"
"Not just opals! #October Birthstones from #DHD http://goo.gl/BmDq5w #birthstone #birthstones #gemstones",31536000,"2015-10-30 20:45:00"
"Check out the many #October Birthstones--info from #DHD http://goo.gl/BmDq5w #birthstone #birthstones #gemstones",31536000,"2015-10-06 19:30:00"
"Check out the many #October Birthstones--info from #DHD http://goo.gl/BmDq5w #birthstone #birthstones #gemstones",31536000,"2015-10-19 15:45:00"
"Great blog about #October Birthstones--info from #DHD http://goo.gl/BmDq5w #birthstone #birthstones #gemstones",31536000,"2015-10-13 11:30:00"
"Chkout the #November Birthstones on #DHD http://goo.gl/BSfu2r #gemstone #birthstone #birthstones",31536000,"2015-11-01 07:45:00"
"Turquoise?? YES! #December Birthstones blog from #DHD http://goo.gl/xNjljP #birthday #birthstone ",31536000,"2015-12-14 12:45:00"
